{
    "count": 113,
    "pageIndex": 1,
    "pageSize": 25,
    "pageCount": 5,
    "items": [
      {
        "date": "2024-01-02T08:00Z",
        "athlete": {
          "$ref": "http://sports.core.api.espn.com/v2/sports/soccer/leagues/esp.1/seasons/2023/athletes/212342?lang=es&region=es"
        },
        "from": {
          "$ref": "http://sports.core.api.espn.com/v2/sports/soccer/leagues/tur.1/seasons/2023/teams/1895?lang=es&region=es"
        },
        "to": {
          "$ref": "http://sports.core.api.espn.com/v2/sports/soccer/leagues/esp.1/seasons/2023/teams/102?lang=es&region=es"
        },
        "type": "Gratis",
        "amount": 0,
        "displayAmount": "Gratis"
      },
      {
        "date": "2024-01-03T08:00Z",
        "athlete": {
          "$ref": "http://sports.core.api.espn.com/v2/sports/soccer/leagues/esp.1/seasons/2023/athletes/329383?lang=es&region=es"
        },
        "from": {
          "$ref": "http://sports.core.api.espn.com/v2/sports/soccer/leagues/bra.1/seasons/2023/teams/3458?lang=es&region=es"
        },
        "to": {
          "$ref": "http://sports.core.api.espn.com/v2/sports/soccer/leagues/esp.1/seasons/2023/teams/83?lang=es&region=es"
        },
        "type": "No revelado",
        "amount": 0,
        "displayAmount": "No revelado"
      },
      {
        "date": "2024-01-05T08:00Z",
        "athlete": {
          "$ref": "http://sports.core.api.espn.com/v2/sports/soccer/leagues/eng.1/seasons/2023/athletes/251701?lang=es&region=es"
        },
        "from": {
          "$ref": "http://sports.core.api.espn.com/v2/sports/soccer/leagues/esp.1/seasons/2023/teams/102?lang=es&region=es"
        },
        "to": {
          "$ref": "http://sports.core.api.espn.com/v2/sports/soccer/leagues/eng.1/seasons/2023/teams/398?lang=es&region=es"
        },
        "type": "Préstamo",
        "amount": 0,
        "displayAmount": "Préstamo"
      },
      {
        "date": "2024-01-08T08:00Z",
        "athlete": {
          "$ref": "http://sports.core.api.espn.com/v2/sports/soccer/leagues/esp.1/seasons/2023/athletes/297829?lang=es&region=es"
        },
        "from": {
          "$ref": "http://sports.core.api.espn.com/v2/sports/soccer/leagues/ger.1/seasons/2023/teams/11420?lang=es&region=es"
        },
        "to": {
          "$ref": "http://sports.core.api.espn.com/v2/sports/soccer/leagues/esp.1/seasons/2023/teams/2922?lang=es&region=es"
        },
        "type": "Préstamo",
        "amount": 0,
        "displayAmount": "Préstamo"
      },
      {
        "date": "2024-01-10T08:00Z",
        "athlete": {
          "$ref": "http://sports.core.api.espn.com/v2/sports/soccer/leagues/esp.1/seasons/2023/athletes/282289?lang=es&region=es"
        },
        "from": {
          "$ref": "http://sports.core.api.espn.com/v2/sports/soccer/leagues/ita.1/seasons/2023/teams/110?lang=es&region=es"
        },
        "to": {
          "$ref": "http://sports.core.api.espn.com/v2/sports/soccer/leagues/esp.1/seasons/2023/teams/243?lang=es&region=es"
        },
        "type": "Préstamo",
        "amount": 0,
        "displayAmount": "Préstamo"
      },
      {
        "date": "2024-01-15T08:00Z",
        "athlete": {
          "$ref": "http://sports.core.api.espn.com/v2/sports/soccer/leagues/esp.1/seasons/2023/athletes/300007?lang=es&region=es"
        },
        "from": {
          "$ref": "http://sports.core.api.espn.com/v2/sports/soccer/leagues/eng.1/seasons/2023/teams/360?lang=es&region=es"
        },
        "to": {
          "$ref": "http://sports.core.api.espn.com/v2/sports/soccer/leagues/esp.1/seasons/2023/teams/243?lang=es&region=es"
        },
        "type": "Préstamo",
        "amount": 0,
        "displayAmount": "Préstamo"
      },
      {
        "date": "2024-01-19T08:00Z",
        "athlete": {
          "$ref": "http://sports.core.api.espn.com/v2/sports/soccer/leagues/esp.1/seasons/2023/athletes/213141?lang=es&region=es"
        },
        "from": {
          "$ref": "http://sports.core.api.espn.com/v2/sports/soccer/leagues/eng.1/seasons/2023/teams/380?lang=es&region=es"
        },
        "to": {
          "$ref": "http://sports.core.api.espn.com/v2/sports/soccer/leagues/esp.1/seasons/2023/teams/102?lang=es&region=es"
        },
        "type": "Préstamo",
        "amount": 0,
        "displayAmount": "Préstamo"
      },
      {
        "date": "2024-01-22T08:00Z",
        "athlete": {
          "$ref": "http://sports.core.api.espn.com/v2/sports/soccer/leagues/esp.1/seasons/2023/athletes/169220?lang=es&region=es"
        },
        "from": {
          "$ref": "http://sports.core.api.espn.com/v2/sports/soccer/leagues/eng.1/seasons/2023/teams/361?lang=es&region=es"
        },
        "to": {
          "$ref": "http://sports.core.api.espn.com/v2/sports/soccer/leagues/esp.1/seasons/2023/teams/85?lang=es&region=es"
        },
        "type": "No revelado",
        "amount": 0,
        "displayAmount": "No revelado"
      },
      {
        "date": "2024-01-22T08:00Z",
        "athlete": {
          "$ref": "http://sports.core.api.espn.com/v2/sports/soccer/leagues/esp.1/seasons/2023/athletes/303844?lang=es&region=es"
        },
        "from": {
          "$ref": "http://sports.core.api.espn.com/v2/sports/soccer/leagues/ita.1/seasons/2023/teams/103?lang=es&region=es"
        },
        "to": {
          "$ref": "http://sports.core.api.espn.com/v2/sports/soccer/leagues/esp.1/seasons/2023/teams/6832?lang=es&region=es"
        },
        "type": "Préstamo",
        "amount": 0,
        "displayAmount": "Préstamo"
      },
      {
        "date": "2024-01-23T08:00Z",
        "athlete": {
          "$ref": "http://sports.core.api.espn.com/v2/sports/soccer/leagues/esp.1/seasons/2023/athletes/301462?lang=es&region=es"
        },
        "from": {
          "$ref": "http://sports.core.api.espn.com/v2/sports/soccer/leagues/eng.1/seasons/2023/teams/380?lang=es&region=es"
        },
        "to": {
          "$ref": "http://sports.core.api.espn.com/v2/sports/soccer/leagues/esp.1/seasons/2023/teams/102?lang=es&region=es"
        },
        "type": "Préstamo",
        "amount": 0,
        "displayAmount": "Préstamo"
      },
      {
        "date": "2024-01-24T08:00Z",
        "athlete": {
          "$ref": "http://sports.core.api.espn.com/v2/sports/soccer/leagues/esp.1/seasons/2023/athletes/231838?lang=es&region=es"
        },
        "from": {
          "$ref": "http://sports.core.api.espn.com/v2/sports/soccer/leagues/esp.1/seasons/2023/teams/1068?lang=es&region=es"
        },
        "to": {
          "$ref": "http://sports.core.api.espn.com/v2/sports/soccer/leagues/esp.1/seasons/2023/teams/89?lang=es&region=es"
        },
        "type": "Préstamo",
        "amount": 0,
        "displayAmount": "Préstamo"
      },
      {
        "date": "2024-01-24T08:00Z",
        "athlete": {
          "$ref": "http://sports.core.api.espn.com/v2/sports/soccer/leagues/esp.1/seasons/2023/athletes/285799?lang=es&region=es"
        },
        "from": {
          "$ref": "http://sports.core.api.espn.com/v2/sports/soccer/leagues/rou.1/seasons/2023/teams/545?lang=es&region=es"
        },
        "to": {
          "$ref": "http://sports.core.api.espn.com/v2/sports/soccer/leagues/esp.1/seasons/2023/teams/1068?lang=es&region=es"
        },
        "type": "No revelado",
        "amount": 0,
        "displayAmount": "No revelado"
      },
      {
        "date": "2024-01-26T08:00Z",
        "athlete": {
          "$ref": "http://sports.core.api.espn.com/v2/sports/soccer/leagues/eng.1/seasons/2023/athletes/194778?lang=es&region=es"
        },
        "from": {
          "$ref": "http://sports.core.api.espn.com/v2/sports/soccer/leagues/esp.1/seasons/2023/teams/1068?lang=es&region=es"
        },
        "to": {
          "$ref": "http://sports.core.api.espn.com/v2/sports/soccer/leagues/eng.1/seasons/2023/teams/398?lang=es&region=es"
        },
        "type": "No revelado",
        "amount": 0,
        "displayAmount": "No revelado"
      },
      {
        "date": "2024-01-26T08:00Z",
        "athlete": {
          "$ref": "http://sports.core.api.espn.com/v2/sports/soccer/leagues/esp.1/seasons/2023/athletes/345805?lang=es&region=es"
        },
        "from": {
          "$ref": "http://sports.core.api.espn.com/v2/sports/soccer/leagues/bel.1/seasons/2023/teams/17544?lang=es&region=es"
        },
        "to": {
          "$ref": "http://sports.core.api.espn.com/v2/sports/soccer/leagues/esp.1/seasons/2023/teams/1068?lang=es&region=es"
        },
        "type": "No revelado",
        "amount": 0,
        "displayAmount": "No revelado"
      },
      {
        "date": "2024-01-29T08:00Z",
        "athlete": {
          "$ref": "http://sports.core.api.espn.com/v2/sports/soccer/leagues/tur.1/seasons/2023/athletes/230757?lang=es&region=es"
        },
        "from": {
          "$ref": "http://sports.core.api.espn.com/v2/sports/soccer/leagues/esp.1/seasons/2023/teams/1068?lang=es&region=es"
        },
        "to": {
          "$ref": "http://sports.core.api.espn.com/v2/sports/soccer/leagues/tur.1/seasons/2023/teams/436?lang=es&region=es"
        },
        "type": "Préstamo",
        "amount": 0,
        "displayAmount": "Préstamo"
      },
      {
        "date": "2024-01-30T08:00Z",
        "athlete": {
          "$ref": "http://sports.core.api.espn.com/v2/sports/soccer/leagues/esp.1/seasons/2023/athletes/305608?lang=es&region=es"
        },
        "from": {
          "$ref": "http://sports.core.api.espn.com/v2/sports/soccer/leagues/ger.1/seasons/2023/teams/11420?lang=es&region=es"
        },
        "to": {
          "$ref": "http://sports.core.api.espn.com/v2/sports/soccer/leagues/esp.1/seasons/2023/teams/102?lang=es&region=es"
        },
        "type": "Préstamo",
        "amount": 0,
        "displayAmount": "Préstamo"
      },
      {
        "date": "2024-01-30T08:00Z",
        "athlete": {
          "$ref": "http://sports.core.api.espn.com/v2/sports/soccer/leagues/ksa.1/seasons/2023/athletes/102251?lang=es&region=es"
        },
        "from": {
          "$ref": "http://sports.core.api.espn.com/v2/sports/soccer/leagues/esp.1/seasons/2023/teams/243?lang=es&region=es"
        },
        "to": {
          "$ref": "http://sports.core.api.espn.com/v2/sports/soccer/leagues/ksa.1/seasons/2023/teams/793?lang=es&region=es"
        },
        "type": "No revelado",
        "amount": 0,
        "displayAmount": "No revelado"
      },
      {
        "date": "2024-01-31T08:00Z",
        "athlete": {
          "$ref": "http://sports.core.api.espn.com/v2/sports/soccer/leagues/esp.1/seasons/2023/athletes/332892?lang=es&region=es"
        },
        "from": {
          "$ref": "http://sports.core.api.espn.com/v2/sports/soccer/leagues/esp.1/seasons/2023/teams/86?lang=es&region=es"
        },
        "to": {
          "$ref": "http://sports.core.api.espn.com/v2/sports/soccer/leagues/esp.1/seasons/2023/teams/94?lang=es&region=es"
        },
        "type": "Préstamo",
        "amount": 0,
        "displayAmount": "Préstamo"
      },
      {
        "date": "2024-01-31T08:00Z",
        "athlete": {
          "$ref": "http://sports.core.api.espn.com/v2/sports/soccer/leagues/esp.1/seasons/2023/athletes/192226?lang=es&region=es"
        },
        "from": {
          "$ref": "http://sports.core.api.espn.com/v2/sports/soccer/leagues/esp.1/seasons/2023/teams/94?lang=es&region=es"
        },
        "to": {
          "$ref": "http://sports.core.api.espn.com/v2/sports/soccer/leagues/esp.1/seasons/2023/teams/1068?lang=es&region=es"
        },
        "type": "Gratis",
        "amount": 0,
        "displayAmount": "Gratis"
      },
      {
        "date": "2024-01-31T08:00Z",
        "athlete": {
          "$ref": "http://sports.core.api.espn.com/v2/sports/soccer/leagues/esp.1/seasons/2023/athletes/290538?lang=es&region=es"
        },
        "from": {
          "$ref": "http://sports.core.api.espn.com/v2/sports/soccer/leagues/eng.1/seasons/2023/teams/360?lang=es&region=es"
        },
        "to": {
          "$ref": "http://sports.core.api.espn.com/v2/sports/soccer/leagues/esp.1/seasons/2023/teams/3747?lang=es&region=es"
        },
        "type": "Préstamo",
        "amount": 0,
        "displayAmount": "Préstamo"
      },
      {
        "date": "2024-02-01T08:00Z",
        "athlete": {
          "$ref": "http://sports.core.api.espn.com/v2/sports/soccer/leagues/esp.1/seasons/2023/athletes/290190?lang=es&region=es"
        },
        "from": {
          "$ref": "http://sports.core.api.espn.com/v2/sports/soccer/leagues/eng.1/seasons/2023/teams/380?lang=es&region=es"
        },
        "to": {
          "$ref": "http://sports.core.api.espn.com/v2/sports/soccer/leagues/esp.1/seasons/2023/teams/3747?lang=es&region=es"
        },
        "type": "No revelado",
        "amount": 0,
        "displayAmount": "No revelado"
      },
      {
        "date": "2024-02-01T08:00Z",
        "athlete": {
          "$ref": "http://sports.core.api.espn.com/v2/sports/soccer/leagues/esp.1/seasons/2023/athletes/227714?lang=es&region=es"
        },
        "from": {
          "$ref": "http://sports.core.api.espn.com/v2/sports/soccer/leagues/eng.1/seasons/2023/teams/371?lang=es&region=es"
        },
        "to": {
          "$ref": "http://sports.core.api.espn.com/v2/sports/soccer/leagues/esp.1/seasons/2023/teams/244?lang=es&region=es"
        },
        "type": "No revelado",
        "amount": 0,
        "displayAmount": "No revelado"
      },
      {
        "date": "2024-02-01T08:00Z",
        "athlete": {
          "$ref": "http://sports.core.api.espn.com/v2/sports/soccer/leagues/esp.1/seasons/2023/athletes/235672?lang=es&region=es"
        },
        "from": {
          "$ref": "http://sports.core.api.espn.com/v2/sports/soccer/leagues/usa.1/seasons/2023/teams/21300?lang=es&region=es"
        },
        "to": {
          "$ref": "http://sports.core.api.espn.com/v2/sports/soccer/leagues/esp.1/seasons/2023/teams/3747?lang=es&region=es"
        },
        "type": "No revelado",
        "amount": 0,
        "displayAmount": "No revelado"
      },
      {
        "date": "2024-02-01T08:00Z",
        "athlete": {
          "$ref": "http://sports.core.api.espn.com/v2/sports/soccer/leagues/esp.1/seasons/2023/athletes/169661?lang=es&region=es"
        },
        "from": {
          "$ref": "http://sports.core.api.espn.com/v2/sports/soccer/leagues/eng.1/seasons/2023/teams/362?lang=es&region=es"
        },
        "to": {
          "$ref": "http://sports.core.api.espn.com/v2/sports/soccer/leagues/esp.1/seasons/2023/teams/102?lang=es&region=es"
        },
        "type": "Gratis",
        "amount": 0,
        "displayAmount": "Gratis"
      },
      {
        "date": "2024-02-01T08:00Z",
        "athlete": {
          "$ref": "http://sports.core.api.espn.com/v2/sports/soccer/leagues/esp.1/seasons/2023/athletes/318291?lang=es&region=es"
        },
        "from": {
          "$ref": "http://sports.core.api.espn.com/v2/sports/soccer/leagues/eng.1/seasons/2023/teams/367?lang=es&region=es"
        },
        "to": {
          "$ref": "http://sports.core.api.espn.com/v2/sports/soccer/leagues/esp.1/seasons/2023/teams/243?lang=es&region=es"
        },
        "type": "Préstamo",
        "amount": 0,
        "displayAmount": "Préstamo"
      }
    ]
  }